1,TableID,char,no,10,1,10
2,InterfaceType,char,no,2,11,12
3,CreateDateTime,datetime,no,14,13,26
4,ClientID,char,no,20,27,46
5,ClientCountry,char,no,5,47,51
6,InterfaceName,char,no,30,52,81
7,Reserved,char,no,20,82,101