{
    "short_name": "Shaves2U",
    "name": "Shaves2U",
    "icons": [
        {
            "src": "img/48.png",
            "type": "image/png",
            "sizes": "48x48"
        },
        {
            "src": "img/96.png",
            "type": "image/png",
            "sizes": "96x96"
        },
        {
            "src": "img/128.png",
            "type": "image/png",
            "sizes": "128x128"
        },
        {
            "src": "img/192.png",
            "type": "image/png",
            "sizes": "192x192"
        },
        {
            "src": "img/192.png",
            "type": "image/png",
            "sizes": "512x512"
        }
    ],
    "start_url": "https://shaves2u.com/",
    "background_color": "#fdb918",
    "display": "standalone",
    "orientation": "portrait-primary",
    "theme_color": "#fdb918",
    "description": "",
    "dir": "auto",
    "lang": "en-my",
    "prefer_related_applications": false
}
