<?xml version="1.0" encoding="utf-8"?>
<!-- Generator: Adobe Illustrator 21.1.0, SVG Export Plug-In . SVG Version: 6.00 Build 0)  -->
<svg version="1.1" id="Layer_1" xmlns="http://www.w3.org/2000/svg" xmlns:xlink="http://www.w3.org/1999/xlink" x="0px" y="0px"
	 viewBox="0 0 200 200" style="enable-background:new 0 0 200 200;" xml:space="preserve">
<style type="text/css">
	.st0{fill:#231F20;}
	.st1{fill:#FFFFFF;}
</style>
<g>
	<path class="st0" d="M174.5,98.9c0,41.1-33.3,74.3-74.3,74.3S25.8,140,25.8,98.9c0-41.1,33.3-74.3,74.3-74.3S174.5,57.9,174.5,98.9
		"/>
	<path class="st1" d="M59.4,134v-25.2h2.9c3.3,16.4,11.1,24.7,23.3,24.7c5.5,0,9.8-1.6,12.8-4.7c3-3.1,4.5-6.7,4.5-10.6
		c0-3.9-1.3-7.2-4-9.9c-2.7-2.6-7.5-5.4-14.6-8.4c-6.3-2.7-11-5.1-14.2-7.1c-3.2-2-5.7-4.7-7.5-7.9c-1.8-3.2-2.7-6.7-2.7-10.4
		c0-5.6,1.9-10.2,5.8-14c3.9-3.7,8.8-5.6,14.7-5.6c3.3,0,6.4,0.5,9.4,1.6c2.9,1.1,5.9,3.3,9,6.7c1.8-2.1,2.8-4.4,3-6.9h2.5v20.5H102
		c-1.5-6-4.1-10.7-7.8-14.1c-3.7-3.4-8-5.1-12.9-5.1c-4.7,0-8.1,1.3-10.3,3.8c-2.2,2.5-3.3,5.3-3.3,8.3c0,3.6,1.4,6.7,4.1,9.2
		c2.7,2.5,7.6,5.4,14.6,8.6c6.8,3,11.7,5.4,14.7,7.3c3.1,1.8,5.5,4.4,7.4,7.6c1.8,3.2,2.8,7,2.8,11.2c0,6.7-2.2,12.2-6.7,16.4
		c-4.5,4.2-10.5,6.3-17.9,6.3c-8.6,0-15.8-3.3-21.5-9.9c-1.3,1.8-2.2,4.4-2.8,7.6H59.4z"/>
	<path class="st1" d="M107.5,101.6v-1.7c2.1-1.7,4.8-4.3,8-7.8c3.2-3.6,5.6-6.6,7-9.2c1.4-2.6,2.1-5.2,2.1-7.9c0-3.2-0.7-5.5-2.2-7
		c-1.4-1.5-3.2-2.2-5.4-2.2c-2.1,0-3.7,0.7-4.9,2.1c-1.2,1.4-1.7,2.8-1.7,4.4c0,1.8,0.7,3.2,2.2,4.2c0.6,0.4,0.8,0.7,0.8,0.9
		c0,0.3-0.3,0.8-0.9,1.4c-0.6,0.6-1.2,0.9-1.6,0.9c-0.6,0-1.2-0.6-2-1.7c-0.8-1.1-1.2-2.6-1.2-4.3c0-2.8,1.1-5.1,3.3-6.7
		c2.2-1.7,4.6-2.5,7.3-2.5c2.8,0,5.3,0.9,7.5,2.6c2.2,1.7,3.3,4.3,3.3,7.7c0,2.1-0.5,4.2-1.5,6.1c-1,1.9-3.4,4.8-7.3,8.8
		c-3.9,3.9-7,6.9-9.3,8.9h17.7l-1.6,6.2h-1.3c0-0.3,0.1-0.7,0.2-1c0.1-0.2,0.1-0.4,0.1-0.7c0-0.6-0.1-0.9-0.4-1
		c-0.2-0.1-0.9-0.2-1.9-0.2H107.5z"/>
	<path class="st1" d="M142,98.2h9.7v1c-1.3,0.1-2.2,0.4-2.9,0.9c-0.6,0.5-1,1-1.2,1.7c-0.1,0.6-0.2,1.8-0.2,3.6v9.7
		c0,2.5-0.1,4.3-0.3,5.5c-0.2,1.2-0.7,2.4-1.7,3.5c-0.9,1.2-2.2,2.1-3.9,2.8c-1.7,0.7-3.6,1-5.8,1c-2.6,0-4.8-0.4-6.6-1.3
		c-1.8-0.9-3.1-2-3.8-3.4c-0.8-1.4-1.1-3.3-1.1-5.6l0-3v-9c0-2.3-0.1-3.8-0.2-4.5c-0.1-0.7-0.4-1.1-0.9-1.4
		c-0.4-0.3-1.4-0.4-2.9-0.4h-0.7v-1h13.3v1h-0.6c-1.4,0-2.4,0.1-2.8,0.4c-0.4,0.2-0.7,0.7-0.9,1.3c-0.2,0.6-0.2,2.2-0.2,4.6v9.1
		c0,3.2,0.1,5.4,0.4,6.8c0.3,1.3,1.1,2.5,2.5,3.5c1.4,1,3.2,1.5,5.4,1.5c1.8,0,3.4-0.3,4.8-1c1.4-0.7,2.5-1.5,3.2-2.5
		c0.7-1,1.1-2,1.3-3.1c0.2-1.1,0.2-2.7,0.2-5v-9.9c0-1.6-0.1-2.8-0.3-3.4c-0.2-0.7-0.6-1.2-1.2-1.6c-0.6-0.4-1.6-0.6-2.9-0.7V98.2z"
		/>
</g>
</svg>
