1,HeaderFlag,char,no,5,1,5
2,InterfaceActionFlag,char,no,1,6,6
3,ExternOrderKey,char,no,20,7,26
4,ExternLineNo,char,no,10,27,36
5,Sku,char,no,20,37,56
6,ManufacturerSku,char,no,20,57,76
7,RetailSku,char,no,20,77,96
8,AltSku,char,no,20,97,116
9,ShippedQty =SUM(PickDetail.Qty),int,no,10,117,126
10,UOM,char,no,10,127,136
11,Lottable01,char,no,18,137,154
12,Lottable02,char,no,18,155,172
13,Lottable03,char,no,18,173,190
14,Lottable04,datetime,no,14,191,204
15,Lottable05,datetime,no,14,205,218
16,UserDefine01,char,no,18,219,236
17,UserDefine02,char,no,18,237,254
18,UserDefine03,char,no,18,255,272
19,UserDefine04,char,no,18,273,290
20,UserDefine05,char,no,18,291,308
21,UserDefine06,char,no,18,309,326
22,UserDefine07,char,no,18,327,344
23,UserDefine08,char,no,18,345,362
24,UserDefine09,char,no,18,363,380
25,ExternPOKey,varchar,no,20,381,400
26,SKUGroup,char,no,10,401,410
27,CLASS,char,no,10,411,420
28,ItemClass,char,no,30,421,450
29,HostWHCode,char,no,10,451,460
30,OrderKey,char,no,10,461,470
31,Style,char,no,20,471,490
32,Color,char,no,10,491,500
33,Size,char,no,5,501,505
34,Measurement,char,no,5,506,510
35,QtyVariance,int,no,10,511,520
36,UserDefine10,char,no,18,521,538
37,EnteredQTY,int,no,10,539,548
38,OrderLineNumber,char,no,5,549,553
39,OrderDetailSysId,int,no,10,554,563
40,OriginalQty,int,no,10,564,573
41,PackKey,char,no,10,574,583
42,PickCode,char,no,10,584,593
43,CartonGroup,char,no,10,594,603
44,ID,char,no,18,604,621
45,Facility,char,no,5,622,626
46,UnitPrice,float,no,16,627,642
47,Tax01,float,no,16,643,658
48,Tax02,float,no,16,659,674
49,ExtendedPrice,float,no,16,675,690
50,UpdateSource,char,no,10,691,700
51,EffectiveDate,datetime,no,14,701,714
52,TariffKey,char,no,10,715,724
53,FreeGoodQty,int,no,10,725,734
54,GrossWeight,float,no,16,735,750
55,Capacity,float,no,16,751,766
56,LoadKey,char,no,10,767,776
57,MBOLKey,char,no,10,777,786
58,QtyToProcess,int,no,10,787,796
59,MinShelfLife,int,no,10,797,806
60,POKey,varchar,no,20,807,826
61,AddDate,datetime,no,14,827,840
62,AddWho,char,no,18,841,858
63,EditDate,datetime,no,14,859,872
64,EditWho,char,no,18,873,890